{
	"user" : {
		"name" 			: "Roberto Robson Soares Nogueira",
		"cpf" 			: "123.452.678-90",
		"gender" 		: "Masculino",
		"birthday"	: "17/02/1983",
		"phone"			: "(11) 8928-0284",
		"email"			: "betorobson@gmail.com"
	}
}